HETOOLKIT Vingette
…
Prepare biology, ENV and RHS data

Import biology data

The import_inv function imports macroinvertebrate sampling data from the Environment Agency’s Ecology and Fish Data Explorer. The data can either be downloaded from https://environment.data.gov.uk/ecology-fish/downloads/INV_OPEN_DATA.zip or read in from a local .csv or .rds file. The data can be optionally filtered by site ID and sample date.

Below, we use our list biolsites to filter the data from EDE.

# Import biology data from EDE
biol_data <- import_inv(sites = biolsites, start_date = "2010-01-01", end_date = "2020-12-31")

# view biol_data
biol_data

## # A tibble: 527 x 58
##    biol_site_id SAMPLE_ID SAMPLE_VERSION REPLICATE_CODE SAMPLE_DATE SAMPLE_TYPE
##    <chr>        <chr>              <int> <chr>          <date>      <fct>      
##  1 56065        605567                 1 <NA>           2010-03-16  SP         
##  2 56065        611126                 1 <NA>           2010-07-28  SP         
##  3 56065        614704                 1 <NA>           2010-10-12  SP         
##  4 56065        621146                 1 <NA>           2011-03-29  SP         
##  5 56065        625474                 1 <NA>           2011-06-14  SP         
##  6 56065        627625                 1 <NA>           2011-08-06  SP         
##  7 56065        630894                 1 <NA>           2011-10-12  SP         
##  8 56065        633498                 1 <NA>           2011-12-09  SP         
##  9 56065        634677                 1 <NA>           2012-02-08  SP         
## 10 56065        635806                 1 <NA>           2012-04-12  SP         
## # ... with 517 more rows, and 52 more variables: SAMPLE_TYPE_DESCRIPTION <fct>,
## #   SAMPLE_METHOD <fct>, SAMPLE_METHOD_DESCRIPTION <fct>, SAMPLE_REASON <fct>,
## #   ANALYSIS_ID <int>, DATE_OF_ANALYSIS <date>, ANALYSIS_TYPE <fct>,
## #   ANALYSIS_TYPE_DESCRIPTION <fct>, ANALYSIS_METHOD <fct>,
## #   ANALYSIS_METHOD_DESCRIPTION <fct>, BMWP_N_TAXA <dbl>, BMWP_TOTAL <dbl>,
## #   BMWP_ASPT <dbl>, CCI_N_TAXA <dbl>, CCI_CS_TOTAL <dbl>, CCI_ASPT <dbl>,
## #   CSmax_CoS <dbl>, BMWP_CoS <dbl>, CCI_CoS <dbl>, CCI <dbl>,
## #   DEHLI_N_TAXA <dbl>, DIS_TOTAL <dbl>, DEHLI <dbl>, EPSI_ML_S_GRP <dbl>,
## #   EPSI_ML_ALL_GRP <dbl>, EPSI_MIXED_LEVEL_SCORE <dbl>, EPSI_S_GRP <dbl>,
…
# replace NAs, if required
env_data$BOULDERS_COBBLES[is.na(env_data$BOULDERS_COBBLES)] <- 0

Now that the substrate data is complete, the expected scores can be generated.

# run predictions
predict_data <- predict_indices(env_data = env_data)

# view predict_data
predict_data

## # A tibble: 60 x 141
##    biol_site_id LATITUDE LONGITUDE LOG.ALTITUDE LOG.DISTANCE.FROM.SOU~ LOG.WIDTH
##    <chr>           <dbl>     <dbl>        <dbl>                  <dbl>     <dbl>
##  1 55395            54.0   -0.173         1.18                   1.30      0.477
##  2 54962            52.6    1.10          1                      1.70      1.03 
##  3 55417            52.8   -0.666         1.90                   1.11      0.672
##  4 34352            52.2    0.195         1.61                   1.46      0.602
##  5 54637            52.3    0.786         1                      1.59      0.845
##  6 55287            52.8   -0.0745        1.40                   0.860     0.724
##  7 54769            52.3    1.37          0.699                  1.34      0.699
##  8 56491            52.2   -1.12          1.95                   1.26      0.672
##  9 34343            52.4   -0.238         1.69                   1.26      0.954
## 10 77216            54.1   -0.474         0.699                  1.17      1.08 
## # ... with 50 more rows, and 135 more variables: LOG.DEPTH <dbl>,
## #   MEAN.SUBSTRATUM <dbl>, DISCHARGE.CATEGORY <dbl>, ALKALINITY <dbl>,
## #   LOG.ALKALINITY <dbl>, LOG.SLOPE <dbl>, MEAN.AIR.TEMP <dbl>,
## #   AIR.TEMP.RANGE <dbl>, p1 <dbl>, p2 <dbl>, p3 <dbl>, p4 <dbl>, p5 <dbl>,
## #   p6 <dbl>, p7 <dbl>, p8 <dbl>, p9 <dbl>, p10 <dbl>, p11 <dbl>, p12 <dbl>,
## #   p13 <dbl>, p14 <dbl>, p15 <dbl>, p16 <dbl>, p17 <dbl>, p18 <dbl>,
## #   p19 <dbl>, p20 <dbl>, p21 <dbl>, p22 <dbl>, p23 <dbl>, p24 <dbl>,
## #   p25 <dbl>, p26 <dbl>, p27 <dbl>, p28 <dbl>, p29 <dbl>, p30 <dbl>,
## #   p31 <dbl>, p32 <dbl>, p33 <dbl>, p34 <dbl>, p35 <dbl>, p36 <dbl>,
…
Prepare flow data

View Flow Data Source

The data frame nrfa.hde provides a joined dataset which illustrates which stations we believe are available on the NRFA, and which stations are available on Hydrology Data Explorer. The dataset was created in early April 2021, and may become out of date over time.

# vew nrfa.hde
nrfa.hde

## # A tibble: 1,366 x 20
##    wiski.id open  Flow_Site_Name   on.nrfa on.hde  id_N name_N  catchment.area_N
##    <chr>    <lgl> <chr>            <lgl>   <lgl>  <dbl> <chr>              <dbl>
##  1 021031   FALSE Till at Etal     TRUE    FALSE  21031 Till a~            648  
##  2 021032   FALSE Glen at Kirknew~ TRUE    FALSE  21032 Glen a~            199. 
##  3 021038   TRUE  Till at Heaton ~ TRUE    FALSE  21035 Till a~            656. 
##  4 022001   TRUE  Coquet at Morwi~ TRUE    TRUE   22001 Coquet~            570. 
##  5 022002   FALSE Coquet at Bygate TRUE    FALSE  22002 Coquet~             59.5
##  6 022003   TRUE  Usway Burn at S~ TRUE    TRUE   22003 Usway ~             21.4
##  7 022004   FALSE Aln at Hawkhill  TRUE    FALSE  22004 Aln at~            205  
##  8 022006   TRUE  Blyth at Hartfo~ TRUE    TRUE   22006 Blyth ~            269. 
##  9 022007   TRUE  Wansbeck at Mit~ TRUE    TRUE   22007 Wansbe~            287. 
## 10 <NA>     FALSE Alwin at Clenne~ TRUE    FALSE  22008 Alwin ~             27.7
## # ... with 1,356 more rows, and 12 more variables: opened_N <chr>,
## #   closed_N <chr>, measuring.authority.id_N <chr>,
## #   measuring.authority.station.id_N <chr>, wiskiID_H <chr>, label_H <chr>,
## #   stationReference_H <chr>, riverName_H <chr>, easting_H <dbl>,
## #   northing_H <dbl>, col_H <chr>, value_H <chr>

Import flow data

import_flow is a high-level function that calls import_nrfa, import_hde and import_flowfiles to import data for a user-defined list of sites.

Below, we use the lists flowsites and flowinputs to specify sites for import.

flow_data <- import_flow(sites = flowsites, inputs = flowinputs, start_date = "2010-01-01", 
    end_date = "2019-12-31", dir = "data/wiski", skip_num = 21, col_order = c(1, 
        2, 3))

# view flow_data
flow_data

## # A tibble: 73,040 x 5
##    input flow_site_id date        flow quality
##    <chr> <chr>        <date>     <dbl> <chr>  
##  1 HDE   029001       2010-01-01 0.426 Good   
##  2 HDE   029001       2010-01-02 0.418 Good   
##  3 HDE   029001       2010-01-03 0.416 Good   
##  4 HDE   029001       2010-01-04 0.419 Good   
##  5 HDE   029001       2010-01-05 0.426 Good   
##  6 HDE   029001       2010-01-06 0.422 Good   
##  7 HDE   029001       2010-01-07 0.416 Good   
##  8 HDE   029001       2010-01-08 0.406 Good   
##  9 HDE   029001       2010-01-09 0.401 Good   
## 10 HDE   029001       2010-01-10 0.54  Good   
## # ... with 73,030 more rows
…
# get output from calc_flowstats
flowstats_1 <- flow_stats[[1]]

# create two-column table mapping biology sites to flow sites
mapping <- master_data[, c("biol_site_id", "flow_site_id")]

# join flow statistics to biology data

join_data <- join_he(biol_data = biol_all, flow_stats = flowstats_1, mapping = mapping, 
    lag_vars = c("Q95z", "Q10z"), LS1 = TRUE, LS2 = TRUE)

# view join_data
join_data

## # A tibble: 440 x 100
##    biol_site_id  Year Season WHPT_ASPT WHPT_NTAXA PSI_F LIFE_F SAMPLE_DATE
##    <chr>        <dbl> <chr>      <dbl>      <dbl> <dbl>  <dbl> <date>     
##  1 34310         2010 Spring      5.75         27  56.2   7.25 2010-04-21 
##  2 34310         2011 Spring      5.99         27  66     7.61 2011-03-07 
##  3 34310         2012 Spring      5.78         30  59.6   7.28 2012-04-12 
##  4 34310         2013 Spring      5.97         24  61.7   7.41 2013-03-20 
##  5 34310         2014 Spring      5.47         33  51.7   7.15 2014-03-20 
##  6 34310         2015 Spring      6.01         29  58.1   7.35 2015-03-20 
##  7 34310         2016 Spring      5.84         28  57.1   7.54 2016-04-13 
##  8 34310         2017 Spring      6.16         31  62.9   7.56 2017-03-27 
##  9 34310         2018 Spring      5.72         30  50.9   7.04 2018-04-26 
## 10 34310         2019 Spring      6.31         28  68.5   7.76 2019-05-21 
## # ... with 430 more rows, and 92 more variables:
## #   TL2_WHPT_NTAXA_AbW_DistFam <dbl>, TL2_WHPT_ASPT_AbW_DistFam <dbl>,
## #   TL3_LIFE_Fam_DistFam <dbl>, TL3_PSI_Fam <dbl>, WATER_BODY <chr>,
## #   NGR_PREFIX <chr>, EASTING <chr>, NORTHING <chr>, WFD_WATERBODY_ID <chr>,
## #   ALTITUDE <dbl>, SLOPE <dbl>, DIST_FROM_SOURCE <dbl>, DISCHARGE <dbl>,
## #   WIDTH <dbl>, DEPTH <dbl>, BOULDERS_COBBLES <dbl>, PEBBLES_GRAVEL <dbl>,
## #   SAND <dbl>, SILT_CLAY <dbl>, ALKALINITY <dbl>, CONDUCTIVITY <dbl>,
## #   TOTAL_HARDNESS <dbl>, CALCIUM <dbl>, WHPT_ASPT_O <dbl>, WHPT_ASPT_E <dbl>,
## #   WHPT_ASPT_OE <dbl>, WHPT_NTAXA_O <dbl>, WHPT_NTAXA_E <dbl>,
…
