hetoolkit-Vignette
…
Prepare biology, ENV and RHS data

Import biology data

The import_inv function imports macroinvertebrate sampling data from the Environment Agency’s Ecology and Fish Data Explorer. The data can either be downloaded from https://environment.data.gov.uk/ecology-fish/downloads/INV_OPEN_DATA.zip or read in from a local .csv or .rds file. The data can be optionally filtered by site ID and sample date.

Below, we use our list biolsites to filter the data from EDE.

# Import biology data from EDE
biol_data <- import_inv(sites = biolsites, start_date = "2010-01-01", end_date = "2020-12-31")

# view biol_data
biol_data

## # A tibble: 533 x 58
##    biol_site_id SAMPLE_ID SAMPLE_VERSION REPLICATE_CODE SAMPLE_DATE SAMPLE_TYPE SAMPLE_TYPE_DES~
##    <chr>        <chr>              <int> <chr>          <date>      <fct>       <fct>           
##  1 56065        605567                 1 <NA>           2010-03-16  SP          FRESHWATER: INV~
##  2 56065        611126                 1 <NA>           2010-07-28  SP          FRESHWATER: INV~
##  3 56065        614704                 1 <NA>           2010-10-12  SP          FRESHWATER: INV~
##  4 56065        621146                 1 <NA>           2011-03-29  SP          FRESHWATER: INV~
##  5 56065        625474                 1 <NA>           2011-06-14  SP          FRESHWATER: INV~
##  6 56065        627625                 1 <NA>           2011-08-06  SP          FRESHWATER: INV~
##  7 56065        630894                 1 <NA>           2011-10-12  SP          FRESHWATER: INV~
##  8 56065        633498                 1 <NA>           2011-12-09  SP          FRESHWATER: INV~
##  9 56065        634677                 1 <NA>           2012-02-08  SP          FRESHWATER: INV~
## 10 56065        635806                 1 <NA>           2012-04-12  SP          FRESHWATER: INV~
## # ... with 523 more rows, and 51 more variables: SAMPLE_METHOD <fct>,
## #   SAMPLE_METHOD_DESCRIPTION <fct>, SAMPLE_REASON <fct>, ANALYSIS_ID <int>,
## #   DATE_OF_ANALYSIS <date>, ANALYSIS_TYPE <fct>, ANALYSIS_TYPE_DESCRIPTION <fct>,
## #   ANALYSIS_METHOD <fct>, ANALYSIS_METHOD_DESCRIPTION <fct>, BMWP_N_TAXA <dbl>,
## #   BMWP_TOTAL <dbl>, BMWP_ASPT <dbl>, CCI_N_TAXA <dbl>, CCI_CS_TOTAL <dbl>, CCI_ASPT <dbl>,
## #   CSmax_CoS <dbl>, BMWP_CoS <dbl>, CCI_CoS <dbl>, CCI <dbl>, DEHLI_N_TAXA <dbl>,
## #   DIS_TOTAL <dbl>, DEHLI <dbl>, EPSI_ML_S_GRP <dbl>, EPSI_ML_ALL_GRP <dbl>, ...
…
##   ROW  SITE YEAR FAIL
## 1  18 80998 2022  ---
## 2   7 54769 2022  ---
##                                                                                WARNING
## 1 You provided LONGITUDE: 1.35613296461629, max value used to train model: 1.3560119. 
## 2  You provided LONGITUDE: 1.4717273941385, max value used to train model: 1.3560119. 
##   REPLACEMENT
## 1         ---
## 2         ---

# view predict_data
predict_data

## # A tibble: 87 x 141
##    biol_site_id LATITUDE LONGITUDE LOG.ALTITUDE LOG.DISTANCE.FROM.SOURCE LOG.WIDTH LOG.DEPTH
##    <chr>           <dbl>     <dbl>        <dbl>                    <dbl>     <dbl>     <dbl>
##  1 55395            53.5   -0.114         1.18                     1.30      0.477      1.36
##  2 54962            52.7    1.12          1                        1.70      1.03       1.41
##  3 55417            52.8   -0.625         1.90                     1.11      0.672      1.23
##  4 34352            51.7    0.258         1.61                     1.46      0.602      1.26
##  5 54637            51.9    0.865         1                        1.59      0.845      1.19
##  6 55287            53.4   -0.0162        1.40                     0.860     0.724      1.10
##  7 54769            52.2    1.47          0.699                    1.34      0.699      1.20
##  8 56491            52.0   -1.05          1.95                     1.26      0.672      1.48
##  9 34343            51.8   -0.148         1.69                     1.26      0.954      1.42
## 10 77216            54.0   -0.379         0.699                    1.17      1.08       2.02
## # ... with 77 more rows, and 134 more variables: MEAN.SUBSTRATUM <dbl>,
## #   DISCHARGE.CATEGORY <dbl>, ALKALINITY <dbl>, LOG.ALKALINITY <dbl>, LOG.SLOPE <dbl>,
## #   MEAN.AIR.TEMP <dbl>, AIR.TEMP.RANGE <dbl>, p1 <dbl>, p2 <dbl>, p3 <dbl>, p4 <dbl>,
## #   p5 <dbl>, p6 <dbl>, p7 <dbl>, p8 <dbl>, p9 <dbl>, p10 <dbl>, p11 <dbl>, p12 <dbl>,
## #   p13 <dbl>, p14 <dbl>, p15 <dbl>, p16 <dbl>, p17 <dbl>, p18 <dbl>, p19 <dbl>, p20 <dbl>,
## #   p21 <dbl>, p22 <dbl>, p23 <dbl>, p24 <dbl>, p25 <dbl>, p26 <dbl>, p27 <dbl>, p28 <dbl>,
## #   p29 <dbl>, p30 <dbl>, p31 <dbl>, p32 <dbl>, p33 <dbl>, p34 <dbl>, p35 <dbl>, p36 <dbl>, ...
…
Prepare flow data

View Flow Data Source

The data frame nrfa.hde provides a joined dataset which illustrates which stations we believe are available on the NRFA, and which stations are available on Hydrology Data Explorer. The dataset was created in early April 2021, and may become out of date over time.

# view nrfa.hde
nrfa.hde

## # A tibble: 1,366 x 20
##    wiski.id open  Flow_Site_Name  on.nrfa on.hde  id_N name_N catchment.area_N opened_N closed_N
##    <chr>    <lgl> <chr>           <lgl>   <lgl>  <dbl> <chr>             <dbl> <chr>    <chr>   
##  1 021031   FALSE Till at Etal    TRUE    FALSE  21031 Till ~            648   1956-01~ 1980-12~
##  2 021032   FALSE Glen at Kirkne~ TRUE    FALSE  21032 Glen ~            199.  1966-01~ 2010-09~
##  3 021038   TRUE  Till at Heaton~ TRUE    FALSE  21035 Till ~            656.  2002     <NA>    
##  4 022001   TRUE  Coquet at Morw~ TRUE    TRUE   22001 Coque~            570.  1963-11~ <NA>    
##  5 022002   FALSE Coquet at Byga~ TRUE    FALSE  22002 Coque~             59.5 1957-01~ 1980-12~
##  6 022003   TRUE  Usway Burn at ~ TRUE    TRUE   22003 Usway~             21.4 1952-01~ <NA>    
##  7 022004   FALSE Aln at Hawkhill TRUE    FALSE  22004 Aln a~            205   1966-01~ 1980-12~
##  8 022006   TRUE  Blyth at Hartf~ TRUE    TRUE   22006 Blyth~            269.  1966-01~ <NA>    
##  9 022007   TRUE  Wansbeck at Mi~ TRUE    TRUE   22007 Wansb~            287.  1968-01~ <NA>    
## 10 <NA>     FALSE Alwin at Clenn~ TRUE    FALSE  22008 Alwin~             27.7 1969-01~ 1983-04~
## # ... with 1,356 more rows, and 10 more variables: measuring.authority.id_N <chr>,
## #   measuring.authority.station.id_N <chr>, wiskiID_H <chr>, label_H <chr>,
## #   stationReference_H <chr>, riverName_H <chr>, easting_H <dbl>, northing_H <dbl>,
## #   col_H <chr>, value_H <chr>

Import flow data

import_flow is a high-level function that calls import_nrfa, import_hde and import_flowfiles to import data for a user-defined list of sites.

Below, we use the lists flowsites and flowinputs to specify sites for import.

flow_data <- import_flow(sites = flowsites, inputs = flowinputs, start_date = "2010-01-01", end_date = "2019-12-31", 
    dir = "data/wiski", skip_num = 21, col_order = c(1, 2, 3))

# view flow_data
flow_data

## # A tibble: 73,040 x 5
##    input flow_site_id date        flow quality
##    <chr> <chr>        <date>     <dbl> <chr>  
##  1 HDE   029001       2010-01-01 0.426 Good   
##  2 HDE   029001       2010-01-02 0.418 Good   
##  3 HDE   029001       2010-01-03 0.416 Good   
##  4 HDE   029001       2010-01-04 0.419 Good   
##  5 HDE   029001       2010-01-05 0.426 Good   
##  6 HDE   029001       2010-01-06 0.422 Good   
##  7 HDE   029001       2010-01-07 0.416 Good   
##  8 HDE   029001       2010-01-08 0.406 Good   
##  9 HDE   029001       2010-01-09 0.401 Good   
## 10 HDE   029001       2010-01-10 0.54  Good   
## # ... with 73,030 more rows
…
The second data table contains long-term flow statistics. The data are arranged in long format, with the following columns:

flow_site_id (a unique site id);

season (S = summer, W = winter, A = all);

parameter (base flow index (bfi), flow duration curve percentiles (p1 to p99), and seasonal means and standard deviations for Q5, Q10, Q20, Q25, Q30, Q50, Q70, Q75, Q80, Q90, Q95 and Q99); and

value (calculated statistic).

# view long-term flow statistics
flow_stats[[2]]

## # A tibble: 2,600 x 5
##    flow_site_id start_date end_date   parameter  value
##    <chr>        <date>     <date>     <chr>      <dbl>
##  1 029001       2010-01-01 2019-12-31 maxsd      0.922
##  2 029003       2010-01-01 2019-12-31 maxsd      1.04 
##  3 030017       2010-01-01 2019-12-31 maxsd      1.18 
##  4 031031       2010-01-01 2019-12-31 maxsd     12.6  
##  5 032806       2010-01-01 2019-12-31 maxsd      5.30 
##  6 033022       2010-01-01 2019-12-31 maxsd      8.25 
##  7 033044       2010-01-01 2019-12-31 maxsd      3.10 
##  8 033051       2010-01-01 2019-12-31 maxsd      2.91 
##  9 034003       2010-01-01 2019-12-31 maxsd      1.28 
## 10 034014       2010-01-01 2019-12-31 maxsd      5.35 
## # ... with 2,590 more rows
…
# get output from calc_flowstats
flowstats_1 <- flow_stats[[1]]

# create two-column table mapping biology sites to flow sites
mapping <- master_data[, c("biol_site_id", "flow_site_id")]

# join flow statistics to biology data

join_data <- join_he(biol_data = biol_all, flow_stats = flowstats_1, mapping = mapping, lags = c(0, 
    1), method = "A", join_type = "add_flows")

# view join_data
join_data

## # A tibble: 488 x 177
##    biol_site_id  Year Season WHPT_ASPT WHPT_NTAXA PSI_F LIFE_F date       TL2_WHPT_NTAXA_AbW_Di~
##    <chr>        <dbl> <chr>      <dbl>      <dbl> <dbl>  <dbl> <date>                      <dbl>
##  1 34310         2010 Autumn      5.98         18  67.6   8.06 2010-09-13                   27.9
##  2 34310         2010 Spring      5.75         27  56.2   7.25 2010-04-21                   27.3
##  3 34310         2010 Summer      5.65         22  56.4   7.21 2010-07-06                   29.6
##  4 34310         2011 Autumn      5.75         29  60.4   7.44 2011-10-24                   27.9
##  5 34310         2011 Spring      5.99         27  66     7.61 2011-03-07                   27.3
##  6 34310         2011 Summer      5.87         22  65.8   7.55 2011-07-11                   29.6
##  7 34310         2012 Autumn      5.09         27  45.8   7.08 2012-09-12                   27.9
##  8 34310         2012 Spring      5.78         30  59.6   7.28 2012-04-12                   27.3
##  9 34310         2012 Summer      5.85         32  58.9   7.28 2012-07-25                   29.6
## 10 34310         2013 Autumn      5.7          28  59.3   7.5  2013-10-17                   27.9
## # ... with 478 more rows, and 168 more variables: TL2_WHPT_ASPT_AbW_DistFam <dbl>,
## #   TL3_LIFE_Fam_DistFam <dbl>, TL3_PSI_Fam <dbl>, WATER_BODY <chr>, NGR_PREFIX <chr>,
## #   EASTING <chr>, NORTHING <chr>, WFD_WATERBODY_ID <chr>, ALTITUDE <dbl>, SLOPE <dbl>,
## #   DIST_FROM_SOURCE <dbl>, DISCHARGE <dbl>, WIDTH <dbl>, DEPTH <dbl>, BOULDERS_COBBLES <dbl>,
## #   PEBBLES_GRAVEL <dbl>, SAND <dbl>, SILT_CLAY <dbl>, ALKALINITY <dbl>, CONDUCTIVITY <dbl>,
## #   TOTAL_HARDNESS <dbl>, CALCIUM <dbl>, WHPT_ASPT_O <dbl>, WHPT_ASPT_E <dbl>,
## #   WHPT_ASPT_OE <dbl>, WHPT_NTAXA_O <dbl>, WHPT_NTAXA_E <dbl>, WHPT_NTAXA_OE <dbl>, ...
…
