Vignette • hetoolkit
…
Below, we use our list biolsites to filter the data from
EDE.

# Import biology data from EDE
biol_data <- import_inv(source = "parquet", sites = biolsites, start_date = "2010-01-01",
    end_date = "2020-12-31")

# view biol_data
biol_data

## # A tibble: 454 × 58
##    biol_site_id SAMPLE_ID SAMPLE_VERSION REPLICATE_CODE SAMPLE_DATE SAMPLE_TYPE
##    <chr>        <chr>              <int> <chr>          <date>      <fct>      
##  1 56065        605567                 1 NA             2010-03-16  SP         
##  2 56065        611126                 1 NA             2010-07-28  SP         
##  3 56065        614704                 1 NA             2010-10-12  SP         
##  4 56065        621146                 1 NA             2011-03-29  SP         
##  5 56065        625474                 1 NA             2011-06-14  SP         
##  6 56065        627625                 1 NA             2011-08-06  SP         
##  7 56065        630894                 1 NA             2011-10-12  SP         
##  8 56065        633498                 1 NA             2011-12-09  SP         
##  9 56065        634677                 1 NA             2012-02-08  SP         
## 10 56065        635806                 1 NA             2012-04-12  SP         
## # ℹ 444 more rows
## # ℹ 52 more variables: SAMPLE_TYPE_DESCRIPTION <fct>, SAMPLE_METHOD <fct>,
## #   SAMPLE_METHOD_DESCRIPTION <fct>, SAMPLE_REASON <fct>, ANALYSIS_ID <int>,
## #   DATE_OF_ANALYSIS <date>, ANALYSIS_TYPE <fct>,
## #   ANALYSIS_TYPE_DESCRIPTION <fct>, ANALYSIS_METHOD <fct>,
## #   ANALYSIS_METHOD_DESCRIPTION <fct>, BMWP_N_TAXA <int>, BMWP_TOTAL <int>,
## #   BMWP_ASPT <dbl>, CCI_N_TAXA <int>, CCI_CS_TOTAL <int>, CCI_ASPT <dbl>, …
…
##   ROW  SITE YEAR FAIL
## 1  17 54769 2025  ---
## 2   3 80998 2025  ---
##                                                                                WARNING
## 1  You provided LONGITUDE: 1.4717273941385, max value used to train model: 1.3560119. 
## 2 You provided LONGITUDE: 1.35613296461629, max value used to train model: 1.3560119. 
##   REPLACEMENT
## 1         ---
## 2         ---

# view predict_data
predict_data

## # A tibble: 51 × 156
##    biol_site_id LATITUDE LONGITUDE LOG.ALTITUDE LOG.DISTANCE.FROM.SO…¹ LOG.WIDTH
##    <chr>           <dbl>     <dbl>        <dbl>                  <dbl>     <dbl>
##  1 55395            53.5    -0.114        1.18                    1.30     0.477
##  2 56226            52.0    -0.267        1.54                    1.21     0.568
##  3 80998            52.4     1.36         1.04                    1.54     0.954
##  4 56065            52.1     0.191        1.54                    1.31     0.740
##  5 54801            52.8     1.25         1.18                    1.33     0.799
##  6 34352            51.7     0.258        1.61                    1.46     0.602
##  7 55897            52.4     0.877        1.18                    1.47     0.954
##  8 77216            54.0    -0.379        0.699                   1.17     1.08 
##  9 54827            52.2     1.33         1                       1.32     0.633
## 10 55673            52.2    -0.934        1.78                    1.50     1.10 
## # ℹ 41 more rows
## # ℹ abbreviated name: ¹​LOG.DISTANCE.FROM.SOURCE
## # ℹ 150 more variables: LOG.DEPTH <dbl>, MEAN.SUBSTRATUM <dbl>,
## #   DISCHARGE.CATEGORY <dbl>, ALKALINITY <dbl>, LOG.ALKALINITY <dbl>,
## #   LOG.SLOPE <dbl>, MEAN.AIR.TEMP <dbl>, AIR.TEMP.RANGE <dbl>, p1 <dbl>,
## #   p2 <dbl>, p3 <dbl>, p4 <dbl>, p5 <dbl>, p6 <dbl>, p7 <dbl>, p8 <dbl>,
## #   p9 <dbl>, p10 <dbl>, p11 <dbl>, p12 <dbl>, p13 <dbl>, p14 <dbl>, …
…
Prepare flow data

View Flow Data Source

The data frame nrfa.hde provides a joined dataset which illustrates
which stations we believe are available on the NRFA, and which stations
are available on Hydrology Data Explorer. The dataset was created in
early April 2021, and may become out of date over time.

# view nrfa.hde
nrfa.hde

## # A tibble: 1,366 × 20
##    wiski.id open  Flow_Site_Name    on.nrfa on.hde  id_N name_N catchment.area_N
##    <chr>    <lgl> <chr>             <lgl>   <lgl>  <dbl> <chr>             <dbl>
##  1 021031   FALSE Till at Etal      TRUE    FALSE  21031 Till …            648  
##  2 021032   FALSE Glen at Kirknewt… TRUE    FALSE  21032 Glen …            199. 
##  3 021038   TRUE  Till at Heaton M… TRUE    FALSE  21035 Till …            656. 
##  4 022001   TRUE  Coquet at Morwick TRUE    TRUE   22001 Coque…            570. 
##  5 022002   FALSE Coquet at Bygate  TRUE    FALSE  22002 Coque…             59.5
##  6 022003   TRUE  Usway Burn at Sh… TRUE    TRUE   22003 Usway…             21.4
##  7 022004   FALSE Aln at Hawkhill   TRUE    FALSE  22004 Aln a…            205  
##  8 022006   TRUE  Blyth at Hartfor… TRUE    TRUE   22006 Blyth…            269. 
##  9 022007   TRUE  Wansbeck at Mitf… TRUE    TRUE   22007 Wansb…            287. 
## 10 NA       FALSE Alwin at Clennell TRUE    FALSE  22008 Alwin…             27.7
## # ℹ 1,356 more rows
## # ℹ 12 more variables: opened_N <chr>, closed_N <chr>,
## #   measuring.authority.id_N <chr>, measuring.authority.station.id_N <chr>,
## #   wiskiID_H <chr>, label_H <chr>, stationReference_H <chr>,
## #   riverName_H <chr>, easting_H <dbl>, northing_H <dbl>, col_H <chr>,
## #   value_H <chr>
…
Below, we use the lists flowsites and
flowinputs to specify sites for import.

flow_data <- import_flow(sites = flowsites, inputs = flowinputs, start_date = "2010-01-01",
    end_date = "2019-12-31", dir = "data/wiski", skip_num = 21, col_order = c(1,
        2, 3))

# view flow_data
flow_data

## # A tibble: 62,084 × 5
##    input flow_site_id date        flow quality
##    <chr> <chr>        <date>     <dbl> <chr>  
##  1 HDE   029001       2010-01-01 0.426 Good   
##  2 HDE   029001       2010-01-02 0.418 Good   
##  3 HDE   029001       2010-01-03 0.416 Good   
##  4 HDE   029001       2010-01-04 0.419 Good   
##  5 HDE   029001       2010-01-05 0.426 Good   
##  6 HDE   029001       2010-01-06 0.422 Good   
##  7 HDE   029001       2010-01-07 0.416 Good   
##  8 HDE   029001       2010-01-08 0.406 Good   
##  9 HDE   029001       2010-01-09 0.401 Good   
## 10 HDE   029001       2010-01-10 0.54  Good   
## # ℹ 62,074 more rows
…
flow_site_id (a unique site id);

season (S = summer, W = winter, A = all);

parameter (base flow index (bfi), flow duration curve percentiles
(p1 to p99), and seasonal means and standard deviations for Q5, Q10,
Q20, Q25, Q30, Q50, Q70, Q75, Q80, Q90, Q95 and Q99); and

value (calculated statistic).

# view long-term flow statistics
flow_stats[[2]]

## # A tibble: 2,261 × 5
##    flow_site_id start_date end_date   parameter value
##    <chr>        <date>     <date>     <chr>     <dbl>
##  1 029001       2010-01-01 2019-12-31 max        1.18
##  2 029003       2010-01-01 2019-12-31 max        1.58
##  3 030017       2010-01-01 2019-12-31 max        1.70
##  4 031031       2010-01-01 2019-12-31 max       15.9 
##  5 032806       2010-01-01 2019-12-31 max        7.83
##  6 033022       2010-01-01 2019-12-31 max       11.8 
##  7 033044       2010-01-01 2019-12-31 max        5.48
##  8 033051       2010-01-01 2019-12-31 max        3.46
##  9 034003       2010-01-01 2019-12-31 max        3.44
## 10 034206       2010-01-01 2019-12-31 max       12.5 
## # ℹ 2,251 more rows
…
# get output from calc_flowstats
flowstats_1 <- flow_stats[[1]]

# create two-column table mapping biology sites to flow sites
mapping <- master_data[, c("biol_site_id", "flow_site_id")]

# join flow statistics to biology data

join_data <- join_he(biol_data = biol_all, flow_stats = flowstats_1, mapping = mapping,
    lags = c(0, 1), method = "A", join_type = "add_flows")

# view join_data
join_data

## # A tibble: 414 × 242
##    biol_site_id SAMPLE_ID SAMPLE_VERSION REPLICATE_CODE SAMPLE_DATE SAMPLE_TYPE
##    <chr>        <chr>              <int> <chr>          <date>      <fct>      
##  1 56065        605567                 1 NA             2010-03-16  SP         
##  2 56065        611126                 1 NA             2010-07-28  SP         
##  3 56065        614704                 1 NA             2010-10-12  SP         
##  4 56065        621146                 1 NA             2011-03-29  SP         
##  5 56065        625474                 1 NA             2011-06-14  SP         
##  6 56065        630894                 1 NA             2011-10-12  SP         
##  7 56065        633498                 1 NA             2011-12-09  SP         
##  8 56065        634677                 1 NA             2012-02-08  SP         
##  9 56065        635806                 1 NA             2012-04-12  SP         
## 10 56065        638557                 1 NA             2012-06-27  SP         
## # ℹ 404 more rows
## # ℹ 236 more variables: SAMPLE_TYPE_DESCRIPTION <fct>, SAMPLE_METHOD <fct>,
## #   SAMPLE_METHOD_DESCRIPTION <fct>, SAMPLE_REASON <fct>, ANALYSIS_ID <int>,
## #   DATE_OF_ANALYSIS <date>, ANALYSIS_TYPE <fct>,
## #   ANALYSIS_TYPE_DESCRIPTION <fct>, ANALYSIS_METHOD <fct>,
## #   ANALYSIS_METHOD_DESCRIPTION <fct>, BMWP_N_TAXA <int>, BMWP_TOTAL <int>,
## #   BMWP_ASPT <dbl>, CCI_N_TAXA <int>, CCI_CS_TOTAL <int>, CCI_ASPT <dbl>, …
…
