Calculate a suite of long-term and seasonal flow statistics for one or more sites. — calc_flowstats_old • hetoolkit
…
#> 
#> [[2]]
#> # A tibble: 2,660 × 5
#>    flow_site_id start_date end_date   parameter  value
#>    <chr>        <date>     <date>     <chr>      <dbl>
#>  1 031031       2010-01-01 2019-12-31 max       15.9  
#>  2 2008         2010-01-01 2019-12-31 max       84.7  
#>  3 2024         2010-01-01 2019-12-31 max        5.00 
#>  4 2050         2010-01-01 2019-12-31 max       17.3  
#>  5 254340011    2010-01-01 2019-12-31 max       14.4  
#>  6 2859TH       2010-01-01 2019-12-31 max        0.653
#>  7 4023         2010-01-01 2019-12-31 max       10.7  
#>  8 4036         2010-01-01 2019-12-31 max        1.48 
#>  9 4175         2010-01-01 2019-12-31 max        3.86 
#> 10 432800       2010-01-01 2019-12-31 max        2.33 
#> # ℹ 2,650 more rows
…
