Visualising and summarising gaps in time series data — plot_heatmap • hetoolkit
…
# view tibble of missing flow values by date (variable x)
a[[2]]
#> # A tibble: 3,652 × 4
#>    x          missing total prop_missing
#>    <fct>        <int> <int>        <dbl>
#>  1 2010-01-01       0    20            0
#>  2 2010-01-02       0    20            0
#>  3 2010-01-03       0    20            0
#>  4 2010-01-04       0    20            0
#>  5 2010-01-05       0    20            0
#>  6 2010-01-06       0    20            0
#>  7 2010-01-07       0    20            0
#>  8 2010-01-08       0    20            0
#>  9 2010-01-09       0    20            0
#> 10 2010-01-10       0    20            0
#> # ℹ 3,642 more rows
…
